Bootstrapping Methods in R - A Hugo website
…
The mean for the individual sample set is 20.09 mpg and the standard deviation is 6.03. However, in this article we will concentrate on calculating the distribution of the mean using the bootstrapping method.

Part 1: Bootstrapping the Hard Way

As stated previously, we are analyzing the distribution of the means for mpg. In the code below, we selected the mpg column in the mtcars data set and also added a row number column.

mtcars_wt_tbl <- mtcars %>%
  as_tibble() %>%
  select(mpg) %>%
  rownames_to_column()

mtcars_wt_tbl

## # A tibble: 32 x 2
##    rowname   mpg
##    <chr>   <dbl>
##  1 1        21  
##  2 2        21  
##  3 3        22.8
##  4 4        21.4
##  5 5        18.7
##  6 6        18.1
##  7 7        14.3
##  8 8        24.4
##  9 9        22.8
## 10 10       19.2
## # ... with 22 more rows
…
Part 2: Bootstrapping the Easy Way

In the example below, we will go through a much easier way of bootstrapping a single column of data using the infer package. The code in Part 1 that built the randomized table of 32,000 records was approximately 10 lines of code. The code below is only 3 lines.

set.seed(225)

bootstrap_part_2 <- mtcars_wt_tbl %>%
  specify(response = mpg) %>%
  generate(reps = 1000, type = "bootstrap")

bootstrap_part_2

## Response: mpg (numeric)
## # A tibble: 32,000 x 2
## # Groups:   replicate [1,000]
##    replicate   mpg
##        <int> <dbl>
##  1         1  13.3
##  2         1  15.8
##  3         1  21  
##  4         1  10.4
##  5         1  13.3
##  6         1  22.8
##  7         1  18.1
##  8         1  16.4
##  9         1  17.3
## 10         1  32.4
## # ... with 31,990 more rows
…
