Bootstrapping Confidence Intervals - A Hugo website
…
The mean for the individual sample set is 20.09 mpg and the standard deviation is 6.03. However, in this article we will concentrate on calculating the distribution of the mean using the bootstrapping method.

Part 1: Bootstrapping the Hard Way

As stated previously, we are analyzing the distribution of the means for mpg. In the code below, we selected the mpg column in the mtcars data set and also added a row number column.

mtcars_wt_tbl <- mtcars %>%
  as_tibble() %>%
  select(mpg) %>%
  rownames_to_column()

mtcars_wt_tbl

## # A tibble: 32 x 2
##    rowname   mpg
##    <chr>   <dbl>
##  1 1        21  
##  2 2        21  
##  3 3        22.8
##  4 4        21.4
##  5 5        18.7
##  6 6        18.1
##  7 7        14.3
##  8 8        24.4
##  9 9        22.8
## 10 10       19.2
## # ... with 22 more rows
…
